%YAML 1.1
%TAG !u! tag:unity3d.com,2011:
--- !u!1 &868977866151123995
GameObject:
  m_ObjectHideFlags: 0
  m_CorrespondingSourceObject: {fileID: 0}
  m_PrefabInstance: {fileID: 0}
  m_PrefabAsset: {fileID: 0}
  serializedVersion: 6
  m_Component:
  - component: {fileID: 4691292023341978133}
  - component: {fileID: 3008653494479621838}
  - component: {fileID: 3546215393279762581}
  m_Layer: 0
  m_Name: Layer1
  m_TagString: Untagged
  m_Icon: {fileID: 0}
  m_NavMeshLayer: 0
  m_StaticEditorFlags: 0
  m_IsActive: 1
--- !u!4 &4691292023341978133
Transform:
  m_ObjectHideFlags: 0
  m_CorrespondingSourceObject: {fileID: 0}
  m_PrefabInstance: {fileID: 0}
  m_PrefabAsset: {fileID: 0}
  m_GameObject: {fileID: 868977866151123995}
  m_LocalRotation: {x: -0, y: -0, z: -0, w: 1}
  m_LocalPosition: {x: 0, y: 0, z: 0}
  m_LocalScale: {x: 1, y: 1, z: 1}
  m_ConstrainProportionsScale: 0
  m_Children: []
  m_Father: {fileID: 6225809432792343765}
  m_RootOrder: 0
  m_LocalEulerAnglesHint: {x: 0, y: 0, z: 0}
--- !u!1839735485 &3008653494479621838
Tilemap:
  m_ObjectHideFlags: 0
  m_CorrespondingSourceObject: {fileID: 0}
  m_PrefabInstance: {fileID: 0}
  m_PrefabAsset: {fileID: 0}
  m_GameObject: {fileID: 868977866151123995}
  m_Enabled: 1
  m_Tiles:
  - first: {x: -2, y: -2, z: 0}
    second:
      serializedVersion: 2
      m_TileIndex: 30
      m_TileSpriteIndex: 30
      m_TileMatrixIndex: 0
      m_TileColorIndex: 0
      m_TileObjectToInstantiateIndex: 65535
      dummyAlignment: 0
      m_AllTileFlags: 1073741825
  - first: {x: -1, y: -2, z: 0}
    second:
      serializedVersion: 2
      m_TileIndex: 31
      m_TileSpriteIndex: 31
      m_TileMatrixIndex: 0
      m_TileColorIndex: 0
      m_TileObjectToInstantiateIndex: 65535
      dummyAlignment: 0
      m_AllTileFlags: 1073741825
  - first: {x: 0, y: -2, z: 0}
    second:
      serializedVersion: 2
      m_TileIndex: 32
      m_TileSpriteIndex: 32
      m_TileMatrixIndex: 0
      m_TileColorIndex: 0
      m_TileObjectToInstantiateIndex: 65535
      dummyAlignment: 0
      m_AllTileFlags: 1073741825
  - first: {x: 1, y: -2, z: 0}
    second:
      serializedVersion: 2
      m_TileIndex: 33
      m_TileSpriteIndex: 33
      m_TileMatrixIndex: 0
      m_TileColorIndex: 0
      m_TileObjectToInstantiateIndex: 65535
      dummyAlignment: 0
      m_AllTileFlags: 1073741825
  - first: {x: 2, y: -2, z: 0}
    second:
      serializedVersion: 2
      m_TileIndex: 34
      m_TileSpriteIndex: 34
      m_TileMatrixIndex: 0
      m_TileColorIndex: 0
      m_TileObjectToInstantiateIndex: 65535
      dummyAlignment: 0
      m_AllTileFlags: 1073741825
  - first: {x: 3, y: -2, z: 0}
    second:
      serializedVersion: 2
      m_TileIndex: 35
      m_TileSpriteIndex: 35
      m_TileMatrixIndex: 0
      m_TileColorIndex: 0
      m_TileObjectToInstantiateIndex: 65535
      dummyAlignment: 0
      m_AllTileFlags: 1073741825
  - first: {x: -2, y: -1, z: 0}
    second:
      serializedVersion: 2
      m_TileIndex: 24
      m_TileSpriteIndex: 24
      m_TileMatrixIndex: 0
      m_TileColorIndex: 0
      m_TileObjectToInstantiateIndex: 65535
      dummyAlignment: 0
      m_AllTileFlags: 1073741825
  - first: {x: -1, y: -1, z: 0}
    second:
      serializedVersion: 2
      m_TileIndex: 25
      m_TileSpriteIndex: 25
      m_TileMatrixIndex: 0
      m_TileColorIndex: 0
      m_TileObjectToInstantiateIndex: 65535
      dummyAlignment: 0
      m_AllTileFlags: 1073741825
  - first: {x: 0, y: -1, z: 0}
    second:
      serializedVersion: 2
      m_TileIndex: 26
      m_TileSpriteIndex: 26
      m_TileMatrixIndex: 0
      m_TileColorIndex: 0
      m_TileObjectToInstantiateIndex: 65535
      dummyAlignment: 0
      m_AllTileFlags: 1073741825
  - first: {x: 1, y: -1, z: 0}
    second:
      serializedVersion: 2
      m_TileIndex: 27
      m_TileSpriteIndex: 27
      m_TileMatrixIndex: 0
      m_TileColorIndex: 0
      m_TileObjectToInstantiateIndex: 65535
      dummyAlignment: 0
      m_AllTileFlags: 1073741825
  - first: {x: 2, y: -1, z: 0}
    second:
      serializedVersion: 2
      m_TileIndex: 28
      m_TileSpriteIndex: 28
      m_TileMatrixIndex: 0
      m_TileColorIndex: 0
      m_TileObjectToInstantiateIndex: 65535
      dummyAlignment: 0
      m_AllTileFlags: 1073741825
  - first: {x: 3, y: -1, z: 0}
    second:
      serializedVersion: 2
      m_TileIndex: 29
      m_TileSpriteIndex: 29
      m_TileMatrixIndex: 0
      m_TileColorIndex: 0
      m_TileObjectToInstantiateIndex: 65535
      dummyAlignment: 0
      m_AllTileFlags: 1073741825
  - first: {x: -2, y: 0, z: 0}
    second:
      serializedVersion: 2
      m_TileIndex: 18
      m_TileSpriteIndex: 18
      m_TileMatrixIndex: 0
      m_TileColorIndex: 0
      m_TileObjectToInstantiateIndex: 65535
      dummyAlignment: 0
      m_AllTileFlags: 1073741825
  - first: {x: -1, y: 0, z: 0}
    second:
      serializedVersion: 2
      m_TileIndex: 19
      m_TileSpriteIndex: 19
      m_TileMatrixIndex: 0
      m_TileColorIndex: 0
      m_TileObjectToInstantiateIndex: 65535
      dummyAlignment: 0
      m_AllTileFlags: 1073741825
  - first: {x: 0, y: 0, z: 0}
    second:
      serializedVersion: 2
      m_TileIndex: 20
      m_TileSpriteIndex: 20
      m_TileMatrixIndex: 0
      m_TileColorIndex: 0
      m_TileObjectToInstantiateIndex: 65535
      dummyAlignment: 0
      m_AllTileFlags: 1073741825
  - first: {x: 1, y: 0, z: 0}
    second:
      serializedVersion: 2
      m_TileIndex: 21
      m_TileSpriteIndex: 21
      m_TileMatrixIndex: 0
      m_TileColorIndex: 0
      m_TileObjectToInstantiateIndex: 65535
      dummyAlignment: 0
      m_AllTileFlags: 1073741825
  - first: {x: 2, y: 0, z: 0}
    second:
      serializedVersion: 2
      m_TileIndex: 22
      m_TileSpriteIndex: 22
      m_TileMatrixIndex: 0
      m_TileColorIndex: 0
      m_TileObjectToInstantiateIndex: 65535
      dummyAlignment: 0
      m_AllTileFlags: 1073741825
  - first: {x: 3, y: 0, z: 0}
    second:
      serializedVersion: 2
      m_TileIndex: 23
      m_TileSpriteIndex: 23
      m_TileMatrixIndex: 0
      m_TileColorIndex: 0
      m_TileObjectToInstantiateIndex: 65535
      dummyAlignment: 0
      m_AllTileFlags: 1073741825
  - first: {x: -2, y: 1, z: 0}
    second:
      serializedVersion: 2
      m_TileIndex: 12
      m_TileSpriteIndex: 12
      m_TileMatrixIndex: 0
      m_TileColorIndex: 0
      m_TileObjectToInstantiateIndex: 65535
      dummyAlignment: 0
      m_AllTileFlags: 1073741825
  - first: {x: -1, y: 1, z: 0}
    second:
      serializedVersion: 2
      m_TileIndex: 13
      m_TileSpriteIndex: 13
      m_TileMatrixIndex: 0
      m_TileColorIndex: 0
      m_TileObjectToInstantiateIndex: 65535
      dummyAlignment: 0
      m_AllTileFlags: 1073741825
  - first: {x: 0, y: 1, z: 0}
    second:
      serializedVersion: 2
      m_TileIndex: 14
      m_TileSpriteIndex: 14
      m_TileMatrixIndex: 0
      m_TileColorIndex: 0
      m_TileObjectToInstantiateIndex: 65535
      dummyAlignment: 0
      m_AllTileFlags: 1073741825
  - first: {x: 1, y: 1, z: 0}
    second:
      serializedVersion: 2
      m_TileIndex: 15
      m_TileSpriteIndex: 15
      m_TileMatrixIndex: 0
      m_TileColorIndex: 0
      m_TileObjectToInstantiateIndex: 65535
      dummyAlignment: 0
      m_AllTileFlags: 1073741825
  - first: {x: 2, y: 1, z: 0}
    second:
      serializedVersion: 2
      m_TileIndex: 16
      m_TileSpriteIndex: 16
      m_TileMatrixIndex: 0
      m_TileColorIndex: 0
      m_TileObjectToInstantiateIndex: 65535
      dummyAlignment: 0
      m_AllTileFlags: 1073741825
  - first: {x: 3, y: 1, z: 0}
    second:
      serializedVersion: 2
      m_TileIndex: 17
      m_TileSpriteIndex: 17
      m_TileMatrixIndex: 0
      m_TileColorIndex: 0
      m_TileObjectToInstantiateIndex: 65535
      dummyAlignment: 0
      m_AllTileFlags: 1073741825
  - first: {x: -2, y: 2, z: 0}
    second:
      serializedVersion: 2
      m_TileIndex: 6
      m_TileSpriteIndex: 6
      m_TileMatrixIndex: 0
      m_TileColorIndex: 0
      m_TileObjectToInstantiateIndex: 65535
      dummyAlignment: 0
      m_AllTileFlags: 1073741825
  - first: {x: -1, y: 2, z: 0}
    second:
      serializedVersion: 2
      m_TileIndex: 7
      m_TileSpriteIndex: 7
      m_TileMatrixIndex: 0
      m_TileColorIndex: 0
      m_TileObjectToInstantiateIndex: 65535
      dummyAlignment: 0
      m_AllTileFlags: 1073741825
  - first: {x: 0, y: 2, z: 0}
    second:
      serializedVersion: 2
      m_TileIndex: 8
      m_TileSpriteIndex: 8
      m_TileMatrixIndex: 0
      m_TileColorIndex: 0
      m_TileObjectToInstantiateIndex: 65535
      dummyAlignment: 0
      m_AllTileFlags: 1073741825
  - first: {x: 1, y: 2, z: 0}
    second:
      serializedVersion: 2
      m_TileIndex: 9
      m_TileSpriteIndex: 9
      m_TileMatrixIndex: 0
      m_TileColorIndex: 0
      m_TileObjectToInstantiateIndex: 65535
      dummyAlignment: 0
      m_AllTileFlags: 1073741825
  - first: {x: 2, y: 2, z: 0}
    second:
      serializedVersion: 2
      m_TileIndex: 10
      m_TileSpriteIndex: 10
      m_TileMatrixIndex: 0
      m_TileColorIndex: 0
      m_TileObjectToInstantiateIndex: 65535
      dummyAlignment: 0
      m_AllTileFlags: 1073741825
  - first: {x: 3, y: 2, z: 0}
    second:
      serializedVersion: 2
      m_TileIndex: 11
      m_TileSpriteIndex: 11
      m_TileMatrixIndex: 0
      m_TileColorIndex: 0
      m_TileObjectToInstantiateIndex: 65535
      dummyAlignment: 0
      m_AllTileFlags: 1073741825
  - first: {x: -2, y: 3, z: 0}
    second:
      serializedVersion: 2
      m_TileIndex: 0
      m_TileSpriteIndex: 0
      m_TileMatrixIndex: 0
      m_TileColorIndex: 0
      m_TileObjectToInstantiateIndex: 65535
      dummyAlignment: 0
      m_AllTileFlags: 1073741825
  - first: {x: -1, y: 3, z: 0}
    second:
      serializedVersion: 2
      m_TileIndex: 1
      m_TileSpriteIndex: 1
      m_TileMatrixIndex: 0
      m_TileColorIndex: 0
      m_TileObjectToInstantiateIndex: 65535
      dummyAlignment: 0
      m_AllTileFlags: 1073741825
  - first: {x: 0, y: 3, z: 0}
    second:
      serializedVersion: 2
      m_TileIndex: 2
      m_TileSpriteIndex: 2
      m_TileMatrixIndex: 0
      m_TileColorIndex: 0
      m_TileObjectToInstantiateIndex: 65535
      dummyAlignment: 0
      m_AllTileFlags: 1073741825
  - first: {x: 1, y: 3, z: 0}
    second:
      serializedVersion: 2
      m_TileIndex: 3
      m_TileSpriteIndex: 3
      m_TileMatrixIndex: 0
      m_TileColorIndex: 0
      m_TileObjectToInstantiateIndex: 65535
      dummyAlignment: 0
      m_AllTileFlags: 1073741825
  - first: {x: 2, y: 3, z: 0}
    second:
      serializedVersion: 2
      m_TileIndex: 4
      m_TileSpriteIndex: 4
      m_TileMatrixIndex: 0
      m_TileColorIndex: 0
      m_TileObjectToInstantiateIndex: 65535
      dummyAlignment: 0
      m_AllTileFlags: 1073741825
  - first: {x: 3, y: 3, z: 0}
    second:
      serializedVersion: 2
      m_TileIndex: 5
      m_TileSpriteIndex: 5
      m_TileMatrixIndex: 0
      m_TileColorIndex: 0
      m_TileObjectToInstantiateIndex: 65535
      dummyAlignment: 0
      m_AllTileFlags: 1073741825
  m_AnimatedTiles: {}
  m_TileAssetArray:
  - m_RefCount: 1
    m_Data: {fileID: 11400000, guid: 5e365984a2ac541479edd615d6f527f1, type: 2}
  - m_RefCount: 1
    m_Data: {fileID: 11400000, guid: 637bbece1b7074844888a9188a9a35ae, type: 2}
  - m_RefCount: 1
    m_Data: {fileID: 11400000, guid: f3d8a657cc3d3d44e8e0710ef3eb43e2, type: 2}
  - m_RefCount: 1
    m_Data: {fileID: 11400000, guid: b49a297b1355a794ca95809d7cee662e, type: 2}
  - m_RefCount: 1
    m_Data: {fileID: 11400000, guid: 2568bfc3715adab4c9c3340196816af6, type: 2}
  - m_RefCount: 1
    m_Data: {fileID: 11400000, guid: e3e2ea7a9bcfb954cb4fcf35505dc272, type: 2}
  - m_RefCount: 1
    m_Data: {fileID: 11400000, guid: 903fefd43c3e94748bcc5046a396f4e3, type: 2}
  - m_RefCount: 1
    m_Data: {fileID: 11400000, guid: ff622f74d662bb14a8bcf0bf95e3aaf7, type: 2}
  - m_RefCount: 1
    m_Data: {fileID: 11400000, guid: 9579293fa61bf6c4e87804a84e9989c7, type: 2}
  - m_RefCount: 1
    m_Data: {fileID: 11400000, guid: c594ed49e91993f4fb74356d40ce5318, type: 2}
  - m_RefCount: 1
    m_Data: {fileID: 11400000, guid: b39fa32408d23b44ca7b504695d415fd, type: 2}
  - m_RefCount: 1
    m_Data: {fileID: 11400000, guid: 11eabe702bf04e54fbf2cca3fb22abb7, type: 2}
  - m_RefCount: 1
    m_Data: {fileID: 11400000, guid: 655cdcee94d364e448805f8d2d7e5fac, type: 2}
  - m_RefCount: 1
    m_Data: {fileID: 11400000, guid: 13c4043e9988af041bf2a57888ef609e, type: 2}
  - m_RefCount: 1
    m_Data: {fileID: 11400000, guid: 5da470330bd77d84986edf6015162458, type: 2}
  - m_RefCount: 1
    m_Data: {fileID: 11400000, guid: a3385b2075e5ed74184ec818c6b25ac4, type: 2}
  - m_RefCount: 1
    m_Data: {fileID: 11400000, guid: 6f9563836e1b9fe409d9d1d64a593417, type: 2}
  - m_RefCount: 1
    m_Data: {fileID: 11400000, guid: 78ed6c25cd47bc44886dc95c1722267c, type: 2}
  - m_RefCount: 1
    m_Data: {fileID: 11400000, guid: 7b031dce1ffad2b4c829332b7ac9afba, type: 2}
  - m_RefCount: 1
    m_Data: {fileID: 11400000, guid: 23c4a1149dc916f429c3bd70692be071, type: 2}
  - m_RefCount: 1
    m_Data: {fileID: 11400000, guid: a2a264fb90d89c741bac2c2f0a8e65e5, type: 2}
  - m_RefCount: 1
    m_Data: {fileID: 11400000, guid: d96d9f46e5a5354448c7871dc7fdf12a, type: 2}
  - m_RefCount: 1
    m_Data: {fileID: 11400000, guid: fa5a4e4bf91c4ea49affa17c40ea846d, type: 2}
  - m_RefCount: 1
    m_Data: {fileID: 11400000, guid: 778a1de03c35346429040f3df5324465, type: 2}
  - m_RefCount: 1
    m_Data: {fileID: 11400000, guid: 3c4cea900d83e27479ebc6ba476ed8ff, type: 2}
  - m_RefCount: 1
    m_Data: {fileID: 11400000, guid: b47ec913a1bb45144886f6c303da6be2, type: 2}
  - m_RefCount: 1
    m_Data: {fileID: 11400000, guid: a35dccfc6b5c3fc4fbabfb85d682f432, type: 2}
  - m_RefCount: 1
    m_Data: {fileID: 11400000, guid: 8368262f9dc5ed344b14c062d869da73, type: 2}
  - m_RefCount: 1
    m_Data: {fileID: 11400000, guid: 05746bc3e01903048ae4eec1947210b6, type: 2}
  - m_RefCount: 1
    m_Data: {fileID: 11400000, guid: 868ec2069396eba4e9c36d31d35812fc, type: 2}
  - m_RefCount: 1
    m_Data: {fileID: 11400000, guid: 18c86492f6c62924abfc161644d87703, type: 2}
  - m_RefCount: 1
    m_Data: {fileID: 11400000, guid: 97d4602c08ed14d4c8d046121757841b, type: 2}
  - m_RefCount: 1
    m_Data: {fileID: 11400000, guid: 8d1e2113b308ffb4398b3174cc5c06bd, type: 2}
  - m_RefCount: 1
    m_Data: {fileID: 11400000, guid: 7bf1eb339996a8445a962aaa700466d4, type: 2}
  - m_RefCount: 1
    m_Data: {fileID: 11400000, guid: ea64fa311e5702c4d804bf2d7182c12e, type: 2}
  - m_RefCount: 1
    m_Data: {fileID: 11400000, guid: 1fdde0352fe9e3a47b7c38038cc06547, type: 2}
  m_TileSpriteArray:
  - m_RefCount: 1
    m_Data: {fileID: 1296015750, guid: b72ca9c602ce9ac499e7b3609fa10c5b, type: 3}
  - m_RefCount: 1
    m_Data: {fileID: 232233035, guid: b72ca9c602ce9ac499e7b3609fa10c5b, type: 3}
  - m_RefCount: 1
    m_Data: {fileID: -1238201708, guid: b72ca9c602ce9ac499e7b3609fa10c5b, type: 3}
  - m_RefCount: 1
    m_Data: {fileID: 980941960, guid: b72ca9c602ce9ac499e7b3609fa10c5b, type: 3}
  - m_RefCount: 1
    m_Data: {fileID: 1484863222, guid: b72ca9c602ce9ac499e7b3609fa10c5b, type: 3}
  - m_RefCount: 1
    m_Data: {fileID: -1561548818, guid: b72ca9c602ce9ac499e7b3609fa10c5b, type: 3}
  - m_RefCount: 1
    m_Data: {fileID: 1175149002, guid: b72ca9c602ce9ac499e7b3609fa10c5b, type: 3}
  - m_RefCount: 1
    m_Data: {fileID: -388243598, guid: b72ca9c602ce9ac499e7b3609fa10c5b, type: 3}
  - m_RefCount: 1
    m_Data: {fileID: 2094217310, guid: b72ca9c602ce9ac499e7b3609fa10c5b, type: 3}
  - m_RefCount: 1
    m_Data: {fileID: 1834240698, guid: b72ca9c602ce9ac499e7b3609fa10c5b, type: 3}
  - m_RefCount: 1
    m_Data: {fileID: -573685145, guid: b72ca9c602ce9ac499e7b3609fa10c5b, type: 3}
  - m_RefCount: 1
    m_Data: {fileID: -2131744614, guid: b72ca9c602ce9ac499e7b3609fa10c5b, type: 3}
  - m_RefCount: 1
    m_Data: {fileID: -637265494, guid: b72ca9c602ce9ac499e7b3609fa10c5b, type: 3}
  - m_RefCount: 1
    m_Data: {fileID: -1953432003, guid: b72ca9c602ce9ac499e7b3609fa10c5b, type: 3}
  - m_RefCount: 1
    m_Data: {fileID: -912961460, guid: b72ca9c602ce9ac499e7b3609fa10c5b, type: 3}
  - m_RefCount: 1
    m_Data: {fileID: 883556910, guid: b72ca9c602ce9ac499e7b3609fa10c5b, type: 3}
  - m_RefCount: 1
    m_Data: {fileID: 836901768, guid: b72ca9c602ce9ac499e7b3609fa10c5b, type: 3}
  - m_RefCount: 1
    m_Data: {fileID: 1223419042, guid: b72ca9c602ce9ac499e7b3609fa10c5b, type: 3}
  - m_RefCount: 1
    m_Data: {fileID: -287462231, guid: b72ca9c602ce9ac499e7b3609fa10c5b, type: 3}
  - m_RefCount: 1
    m_Data: {fileID: 553995516, guid: b72ca9c602ce9ac499e7b3609fa10c5b, type: 3}
  - m_RefCount: 1
    m_Data: {fileID: -1928487777, guid: b72ca9c602ce9ac499e7b3609fa10c5b, type: 3}
  - m_RefCount: 1
    m_Data: {fileID: -2010846004, guid: b72ca9c602ce9ac499e7b3609fa10c5b, type: 3}
  - m_RefCount: 1
    m_Data: {fileID: -149809113, guid: b72ca9c602ce9ac499e7b3609fa10c5b, type: 3}
  - m_RefCount: 1
    m_Data: {fileID: -315395363, guid: b72ca9c602ce9ac499e7b3609fa10c5b, type: 3}
  - m_RefCount: 1
    m_Data: {fileID: -2025771329, guid: b72ca9c602ce9ac499e7b3609fa10c5b, type: 3}
  - m_RefCount: 1
    m_Data: {fileID: -1614770469, guid: b72ca9c602ce9ac499e7b3609fa10c5b, type: 3}
  - m_RefCount: 1
    m_Data: {fileID: 610842728, guid: b72ca9c602ce9ac499e7b3609fa10c5b, type: 3}
  - m_RefCount: 1
    m_Data: {fileID: -403610373, guid: b72ca9c602ce9ac499e7b3609fa10c5b, type: 3}
  - m_RefCount: 1
    m_Data: {fileID: -610087337, guid: b72ca9c602ce9ac499e7b3609fa10c5b, type: 3}
  - m_RefCount: 1
    m_Data: {fileID: 1221810444, guid: b72ca9c602ce9ac499e7b3609fa10c5b, type: 3}
  - m_RefCount: 1
    m_Data: {fileID: 2121372245, guid: b72ca9c602ce9ac499e7b3609fa10c5b, type: 3}
  - m_RefCount: 1
    m_Data: {fileID: 1091935043, guid: b72ca9c602ce9ac499e7b3609fa10c5b, type: 3}
  - m_RefCount: 1
    m_Data: {fileID: -100329582, guid: b72ca9c602ce9ac499e7b3609fa10c5b, type: 3}
  - m_RefCount: 1
    m_Data: {fileID: 1624057629, guid: b72ca9c602ce9ac499e7b3609fa10c5b, type: 3}
  - m_RefCount: 1
    m_Data: {fileID: -1822581344, guid: b72ca9c602ce9ac499e7b3609fa10c5b, type: 3}
  - m_RefCount: 1
    m_Data: {fileID: 755136567, guid: b72ca9c602ce9ac499e7b3609fa10c5b, type: 3}
  m_TileMatrixArray:
  - m_RefCount: 36
    m_Data:
      e00: 1
      e01: 0
      e02: 0
      e03: 0
      e10: 0
      e11: 1
      e12: 0
      e13: 0
      e20: 0
      e21: 0
      e22: 1
      e23: 0
      e30: 0
      e31: 0
      e32: 0
      e33: 1
  m_TileColorArray:
  - m_RefCount: 36
    m_Data: {r: 1, g: 1, b: 1, a: 1}
  m_TileObjectToInstantiateArray: []
  m_AnimationFrameRate: 1
  m_Color: {r: 1, g: 1, b: 1, a: 1}
  m_Origin: {x: -2, y: -2, z: 0}
  m_Size: {x: 6, y: 6, z: 1}
  m_TileAnchor: {x: 0.5, y: 0.5, z: 0}
  m_TileOrientation: 0
  m_TileOrientationMatrix:
    e00: 1
    e01: 0
    e02: 0
    e03: 0
    e10: 0
    e11: 1
    e12: 0
    e13: 0
    e20: 0
    e21: 0
    e22: 1
    e23: 0
    e30: 0
    e31: 0
    e32: 0
    e33: 1
--- !u!483693784 &3546215393279762581
TilemapRenderer:
  m_ObjectHideFlags: 0
  m_CorrespondingSourceObject: {fileID: 0}
  m_PrefabInstance: {fileID: 0}
  m_PrefabAsset: {fileID: 0}
  m_GameObject: {fileID: 868977866151123995}
  m_Enabled: 1
  m_CastShadows: 0
  m_ReceiveShadows: 0
  m_DynamicOccludee: 0
  m_StaticShadowCaster: 0
  m_MotionVectors: 1
  m_LightProbeUsage: 0
  m_ReflectionProbeUsage: 0
  m_RayTracingMode: 0
  m_RayTraceProcedural: 0
  m_RenderingLayerMask: 1
  m_RendererPriority: 0
  m_Materials:
  - {fileID: 10754, guid: 0000000000000000f000000000000000, type: 0}
  m_StaticBatchInfo:
    firstSubMesh: 0
    subMeshCount: 0
  m_StaticBatchRoot: {fileID: 0}
  m_ProbeAnchor: {fileID: 0}
  m_LightProbeVolumeOverride: {fileID: 0}
  m_ScaleInLightmap: 1
  m_ReceiveGI: 1
  m_PreserveUVs: 0
  m_IgnoreNormalsForChartDetection: 0
  m_ImportantGI: 0
  m_StitchLightmapSeams: 1
  m_SelectedEditorRenderState: 0
  m_MinimumChartSize: 4
  m_AutoUVMaxDistance: 0.5
  m_AutoUVMaxAngle: 89
  m_LightmapParameters: {fileID: 0}
  m_SortingLayerID: 0
  m_SortingLayer: 0
  m_SortingOrder: 0
  m_ChunkSize: {x: 32, y: 32, z: 32}
  m_ChunkCullingBounds: {x: 0, y: 0, z: 0}
  m_MaxChunkCount: 16
  m_MaxFrameAge: 16
  m_SortOrder: 0
  m_Mode: 0
  m_DetectChunkCullingBounds: 0
  m_MaskInteraction: 0
--- !u!1 &3905818695933383248
GameObject:
  m_ObjectHideFlags: 0
  m_CorrespondingSourceObject: {fileID: 0}
  m_PrefabInstance: {fileID: 0}
  m_PrefabAsset: {fileID: 0}
  serializedVersion: 6
  m_Component:
  - component: {fileID: 6225809432792343765}
  - component: {fileID: 1510406441401215163}
  m_Layer: 0
  m_Name: GrassPalette
  m_TagString: Untagged
  m_Icon: {fileID: 0}
  m_NavMeshLayer: 0
  m_StaticEditorFlags: 0
  m_IsActive: 1
--- !u!4 &6225809432792343765
Transform:
  m_ObjectHideFlags: 0
  m_CorrespondingSourceObject: {fileID: 0}
  m_PrefabInstance: {fileID: 0}
  m_PrefabAsset: {fileID: 0}
  m_GameObject: {fileID: 3905818695933383248}
  m_LocalRotation: {x: 0, y: 0, z: 0, w: 1}
  m_LocalPosition: {x: 0, y: 0, z: 0}
  m_LocalScale: {x: 1, y: 1, z: 1}
  m_ConstrainProportionsScale: 0
  m_Children:
  - {fileID: 4691292023341978133}
  m_Father: {fileID: 0}
  m_RootOrder: 0
  m_LocalEulerAnglesHint: {x: 0, y: 0, z: 0}
--- !u!156049354 &1510406441401215163
Grid:
  m_ObjectHideFlags: 0
  m_CorrespondingSourceObject: {fileID: 0}
  m_PrefabInstance: {fileID: 0}
  m_PrefabAsset: {fileID: 0}
  m_GameObject: {fileID: 3905818695933383248}
  m_Enabled: 1
  m_CellSize: {x: 1, y: 1, z: 0}
  m_CellGap: {x: 0, y: 0, z: 0}
  m_CellLayout: 0
  m_CellSwizzle: 0
--- !u!114 &8892696673257160027
MonoBehaviour:
  m_ObjectHideFlags: 0
  m_CorrespondingSourceObject: {fileID: 0}
  m_PrefabInstance: {fileID: 0}
  m_PrefabAsset: {fileID: 0}
  m_GameObject: {fileID: 0}
  m_Enabled: 1
  m_EditorHideFlags: 0
  m_Script: {fileID: 12395, guid: 0000000000000000e000000000000000, type: 0}
  m_Name: Palette Settings
  m_EditorClassIdentifier: 
  cellSizing: 0
  m_TransparencySortMode: 0
  m_TransparencySortAxis: {x: 0, y: 0, z: 1}
