%YAML 1.1
%TAG !u! tag:unity3d.com,2011:
--- !u!78 &1
TagManager:
  serializedVersion: 2
  tags: []
  layers:
  - Default
  - TransparentFX
  - Ignore Raycast
  - 
  - Water
  - UI
  - Ground
  - Player
  - Danger
  - Portal
  - PickUps
  - 
  - 
  - 
  - 
  - 
  - 
  - 
  - 
  - 
  - 
  - 
  - 
  - 
  - 
  - 
  - 
  - 
  - 
  - 
  - 
  - 
  m_SortingLayers:
  - name: Default
    uniqueID: 0
    locked: 0
  - name: Background
    uniqueID: 46869083
    locked: 0
  - name: Patforms
    uniqueID: 2577207209
    locked: 0
  - name: Enemies
    uniqueID: 2777054379
    locked: 0
  - name: PickUps
    uniqueID: 408946523
    locked: 0
  - name: Player
    uniqueID: 1962967725
    locked: 0
